<?xml version="1.0" encoding="utf-8"?>
<!-- Generator: Adobe Illustrator 25.1.0, SVG Export Plug-In . SVG Version: 6.00 Build 0)  -->
<svg version="1.1" id="Layer_1" xmlns="http://www.w3.org/2000/svg" xmlns:xlink="http://www.w3.org/1999/xlink" x="0px" y="0px"
	 viewBox="0 0 49 80" style="enable-background:new 0 0 49 80;" xml:space="preserve">
<style type="text/css">
	.st0{opacity:0.2;fill:#434343;enable-background:new    ;}
	.st1{fill:#002776;}
</style>
<g transform="translate(-1329.189 -632)">
	<ellipse class="st0" cx="1354.2" cy="707" rx="16" ry="5"/>
	<g transform="translate(1329.582 632)">
		<g transform="translate(0 0)">
			<path class="st1" d="M3.6,37.5L3.6,37.5c-2.6-3.9-4-8.6-4-13.3C-0.3,10.7,10.7-0.1,24.1,0c13.4-0.1,24.4,10.7,24.5,24.2
				c0,4.7-1.4,9.4-4.1,13.3h0.1L24.1,75L3.6,37.5z"/>
		</g>
	</g>
</g>
</svg>
