<?xml version="1.0" encoding="utf-8"?>
<!-- Generator: Adobe Illustrator 25.1.0, SVG Export Plug-In . SVG Version: 6.00 Build 0)  -->
<svg version="1.1" id="Layer_1" xmlns="http://www.w3.org/2000/svg" xmlns:xlink="http://www.w3.org/1999/xlink" x="0px" y="0px"
	 viewBox="0 0 20.9 20" style="enable-background:new 0 0 20.9 20;" xml:space="preserve">
<style type="text/css">
	.st0{fill:#FFFFFF;}
</style>
<path class="st0" d="M15.7,6.8c1.2,0,2.1-1,2.1-2.1c0-1.2-1-2.1-2.1-2.1c-1.2,0-2.1,1-2.1,2.1C13.6,5.9,14.5,6.8,15.7,6.8z
	 M10.4,6.8c1.2,0,2.1-1,2.1-2.1c0-1.2-1-2.1-2.1-2.1c-1.2,0-2.1,1-2.1,2.1C8.2,5.9,9.2,6.8,10.4,6.8z M10.4,13.2
	c-1.2,0-2.1,1-2.1,2.1c0,1.2,1,2.1,2.1,2.1c1.2,0,2.1-1,2.1-2.1S11.5,13.2,10.4,13.2z M5,2.5c-1.2,0-2.1,1-2.1,2.1
	c0,1.2,1,2.1,2.1,2.1s2.1-1,2.1-2.1C7.2,3.5,6.2,2.5,5,2.5z M5,7.9c-1.2,0-2.1,1-2.1,2.1c0,1.2,1,2.1,2.1,2.1s2.1-1,2.1-2.1
	C7.2,8.8,6.2,7.9,5,7.9z M5,13.2c-1.2,0-2.1,1-2.1,2.1c0,1.2,1,2.1,2.1,2.1s2.1-1,2.1-2.1C7.2,14.2,6.2,13.2,5,13.2z M16.3,13.1
	v-0.8c1-0.3,1.7-1.2,1.7-2.2c0-1.3-1-2.3-2.3-2.3c-1.1,0-2,0.7-2.2,1.7h-0.8c-0.3-1-1.2-1.7-2.2-1.7C9.1,7.6,8,8.7,8,9.9
	s1,2.3,2.3,2.3c1.1,0,2-0.7,2.2-1.7h0.9c0.2,0.8,0.8,1.4,1.6,1.6v0.9c-1,0.3-1.7,1.2-1.7,2.2c0,1.3,1,2.3,2.3,2.3s2.3-1,2.3-2.3
	C18,14.2,17.3,13.4,16.3,13.1z M10.3,11.1c-0.6,0-1.1-0.5-1.1-1.1s0.5-1.1,1.1-1.1s1.1,0.5,1.1,1.1C11.5,10.6,11,11.1,10.3,11.1z
	 M14.5,9.9c0-0.6,0.5-1.1,1.1-1.1s1.1,0.5,1.1,1.1s-0.5,1.1-1.1,1.1C15.1,11.1,14.5,10.6,14.5,9.9z M15.7,16.4
	c-0.6,0-1.1-0.5-1.1-1.1s0.5-1.1,1.1-1.1c0.6,0,1.1,0.5,1.1,1.1S16.3,16.4,15.7,16.4z"/>
</svg>
