<?xml version="1.0" encoding="utf-8"?>
<!-- Generator: Adobe Illustrator 25.1.0, SVG Export Plug-In . SVG Version: 6.00 Build 0)  -->
<svg version="1.1" id="Layer_1" xmlns="http://www.w3.org/2000/svg" xmlns:xlink="http://www.w3.org/1999/xlink" x="0px" y="0px"
	 viewBox="0 0 20.9 20" style="enable-background:new 0 0 20.9 20;" xml:space="preserve">
<style type="text/css">
	.st0{fill:#FFFFFF;}
</style>
<path class="st0" d="M14.7,14.5L14.7,14.5c-0.2-0.2-0.5-0.2-0.7,0l-1.4,1.1c-0.2,0.1-0.4,0.2-0.6,0.2h-1.8c-0.1,0-0.2-0.1-0.2-0.2
	c0,0,0,0,0,0c0-0.1,0.1-0.2,0.2-0.2h1.2c0.3,0,0.5-0.2,0.6-0.4c0-0.3-0.2-0.5-0.4-0.6H9c-0.4,0-0.8,0.1-1.1,0.4l-0.7,0.6H6.1v1.9
	h5.6c0.2,0,0.4-0.1,0.6-0.2l2.3-1.8C14.8,15.1,14.9,14.8,14.7,14.5z M6.3,5.5c0.2,0.1,0.5,0.1,0.6,0l1.4-1.1
	c0.2-0.1,0.4-0.2,0.6-0.2h1.8c0.1,0,0.3,0.1,0.3,0.2s-0.1,0.3-0.2,0.3c0,0-0.1,0-0.1,0H9.5C9.3,4.7,9,4.9,9,5.1
	c0,0.3,0.1,0.5,0.4,0.6h2.5c0.4,0,0.8-0.2,1.1-0.4l0.7-0.5h1.1v-2H9.2C8.9,2.8,8.7,2.8,8.6,3L6.3,4.8C6.1,5,6,5.3,6.3,5.5L6.3,5.5z
	 M13,8c-0.6-0.6-1.6-0.6-2.1,0c0,0,0,0,0,0l-0.3,0.3L10.3,8C9.8,7.3,8.9,7.1,8.2,7.5C7.4,8,7.2,8.9,7.7,9.6h1l1-0.8l1.1,1.3l1-0.9
	l0.7,0.5h0.9C13.5,9.1,13.4,8.5,13,8z M11.8,10.1l-1.1,1.1L9.6,9.8l-0.7,0.5H8.4l0,0l2.2,2.2l2.2-2.2l0,0h-0.5L11.8,10.1z"/>
</svg>
